{"1_0991630"
 {"the" {:freq 23/451, :act 4359/851939, :init 4359/851939},
  "to" {:freq 35/1353, :act 0, :init 0},
  "a" {:freq 35/1353, :act 0, :init 0},
  "in" {:freq 1/41, :act 0, :init 0},
  "ms" {:freq 10/451, :act 0, :init 0},
  "of" {:freq 28/1353, :act 0, :init 0},
  "lewinsky" {:freq 25/1353, :act 0, :init 0},
  "mr" {:freq 8/451, :act 3379/851939, :init 22469/8829186},
  "that" {:freq 23/1353, :act 0, :init 0},
  "and" {:freq 20/1353, :act 10928/2555817, :init 10928/2555817},
  "with" {:freq 17/1353, :act 9830/2555817, :init 9830/2555817},
  "her" {:freq 16/1353, :act 0, :init 0},
  "was" {:freq 5/451, :act 0, :init 0},
  "said" {:freq 5/451, :act 26/851939, :init 0},
  "s" {:freq 5/451, :act 928/851939, :init 0},
  "clinton" {:freq 13/1353, :act 25504/2555817, :init 25504/2555817},
  "she" {:freq 4/451, :act 0, :init 0},
  "on" {:freq 4/451, :act 4170/851939, :init 0},
  "had" {:freq 4/451, :act 1915/851939, :init 1915/851939},
  "for" {:freq 4/451, :act 111/851939, :init 111/851939},
  "starr" {:freq 1/123, :act 0, :init 0},
  "not" {:freq 10/1353, :act 0, :init 0},
  "about" {:freq 10/1353, :act 0, :init 0},
  "tripp" {:freq 3/451, :act 0, :init 0},
  "president" {:freq 3/451, :act 3353/851939, :init 3353/851939},
  "he" {:freq 3/451, :act 9667/851939, :init 9667/851939},
  "who" {:freq 8/1353, :act 0, :init 0},
  "lawyers" {:freq 8/1353, :act 0, :init 0},
  "his" {:freq 8/1353, :act 49832/2555817, :init 49832/2555817}},
 "2_1040010"
 {"the" {:freq 106/1889, :act 0, :init 0},
  "his" {:freq 48/1889, :act 0, :init 0},
  "to" {:freq 42/1889, :act 10779/789602, :init 10779/789602},
  "in" {:freq 42/1889, :act 0, :init 0},
  "mr" {:freq 41/1889, :act 3367/2368806, :init 3367/2368806},
  "of" {:freq 39/1889, :act 17209/2368806, :init 0},
  "clinton" {:freq 37/1889, :act 0, :init 0},
  "a" {:freq 37/1889, :act 0, :init 0},
  "and" {:freq 36/1889, :act 0, :init 0},
  "he" {:freq 34/1889, :act 0, :init 0},
  "with" {:freq 31/1889, :act 0, :init 0},
  "that" {:freq 28/1889, :act 1704/394801, :init 1704/394801},
  "on" {:freq 26/1889, :act 2122/394801, :init 2122/394801},
  "s" {:freq 23/1889, :act 14605/2368806, :init 14605/2368806},
  "said" {:freq 21/1889, :act 1945/1184403, :init 1945/1184403},
  "had" {:freq 21/1889, :act 0, :init 0},
  "president" {:freq 20/1889, :act 0, :init 0},
  "for" {:freq 17/1889, :act 0, :init 0},
  "lewinsky" {:freq 16/1889, :act 0, :init 0},
  "an" {:freq 16/1889, :act 0, :init 0},
  "white" {:freq 15/1889, :act 0, :init 0},
  "it" {:freq 15/1889, :act 3175/789602, :init 3175/789602},
  "house" {:freq 15/1889, :act 5747/2368806, :init 0},
  "ms" {:freq 12/1889, :act 0, :init 0},
  "at" {:freq 12/1889, :act 0, :init 0},
  "relationship" {:freq 11/1889, :act 0, :init 0},
  "this" {:freq 9/1889, :act 0, :init 0},
  "testimony" {:freq 9/1889, :act 0, :init 0},
  "public" {:freq 9/1889, :act 0, :init 0}},
 "3_1066201"
 {"the" {:freq 35/627, :act 2824/252681, :init 2824/252681},
  "to" {:freq 15/418, :act 0, :init 0N},
  "of" {:freq 35/1254, :act 2099/194370, :init 2099/194370},
  "mr" {:freq 29/1254, :act 0, :init 0N},
  "that" {:freq 4/209, :act 0, :init 0N},
  "on" {:freq 4/209, :act 0, :init 0N},
  "s" {:freq 23/1254, :act 0, :init 0N},
  "a" {:freq 23/1254, :act 15101/2526810, :init 15101/2526810},
  "and" {:freq 1/57, :act 37/114855, :init 37/114855},
  "is" {:freq 17/1254, :act 0, :init 0N},
  "said" {:freq 8/627, :act 0, :init 0N},
  "it" {:freq 5/418, :act 0, :init 0N},
  "republican" {:freq 7/627, :act 0, :init 0N},
  "he" {:freq 7/627, :act 316/1263405, :init 316/1263405},
  "would" {:freq 13/1254, :act 0, :init 0N},
  "perjury" {:freq 13/1254, :act 0, :init 0N},
  "house" {:freq 13/1254, :act 493/194370, :init 493/194370},
  "clinton" {:freq 13/1254, :act 1393/2526810, :init 1393/2526810},
  "who" {:freq 2/209, :act 0, :init 0N},
  "in" {:freq 2/209, :act 3703/421135, :init 3703/421135},
  "impeachment" {:freq 1/114, :act 379/229710, :init 379/229710},
  "i" {:freq 1/114, :act 0, :init 0N},
  "delay" {:freq 1/114, :act 0, :init 0N},
  "vote" {:freq 5/627, :act 0, :init 0N},
  "republicans" {:freq 5/627, :act 0, :init 0N},
  "president" {:freq 5/627, :act 0, :init 0N},
  "democrats" {:freq 5/627, :act 0, :init 0N},
  "have" {:freq 3/418, :act 0, :init 0N},
  "t" {:freq 4/627, :act 0, :init 0N}},
 "4_1070964"
 {"the" {:freq 27/403, :act 0N, :init 0N},
  "of" {:freq 6/155, :act 0N, :init 0N},
  "to" {:freq 2/65, :act 0N, :init 0N},
  "a" {:freq 49/2015, :act 0N, :init 0N},
  "in" {:freq 37/2015, :act 0N, :init 0N},
  "and" {:freq 36/2015, :act 0N, :init 0N},
  "mr" {:freq 33/2015, :act 0N, :init 0N},
  "that" {:freq 1/65, :act 0N, :init 0N},
  "house" {:freq 2/155, :act 0N, :init 0N},
  "he" {:freq 23/2015, :act 0N, :init 0N},
  "clinton" {:freq 22/2015, :act 0N, :init 0N},
  "s" {:freq 21/2015, :act 0N, :init 0N},
  "impeachment" {:freq 21/2015, :act 0N, :init 0N},
  "with" {:freq 18/2015, :act 0N, :init 0N},
  "said" {:freq 18/2015, :act 0N, :init 0N},
  "president" {:freq 16/2015, :act 0N, :init 0N},
  "on" {:freq 14/2015, :act 0N, :init 0N},
  "his" {:freq 14/2015, :act 0N, :init 0N},
  "had" {:freq 14/2015, :act 0N, :init 0N},
  "it" {:freq 1/155, :act 0N, :init 0N},
  "an" {:freq 1/155, :act 0N, :init 0N},
  "not" {:freq 12/2015, :act 0N, :init 0N},
  "i" {:freq 12/2015, :act 0N, :init 0N},
  "from" {:freq 12/2015, :act 0N, :init 0N},
  "democrats" {:freq 12/2015, :act 0N, :init 0N},
  "but" {:freq 12/2015, :act 0N, :init 0N},
  "was" {:freq 11/2015, :act 0N, :init 0N},
  "their" {:freq 11/2015, :act 0N, :init 0N},
  "republicans" {:freq 11/2015, :act 0N, :init 0N}},
 "4_1071380"
 {"the" {:freq 27/403, :act 0N, :init 0},
  "of" {:freq 6/155, :act 0N, :init 0N},
  "to" {:freq 2/65, :act 0N, :init 0N},
  "a" {:freq 49/2015, :act 0N, :init 0N},
  "in" {:freq 37/2015, :act 0N, :init 0N},
  "and" {:freq 36/2015, :act 0N, :init 0},
  "mr" {:freq 33/2015, :act 0N, :init 0N},
  "that" {:freq 1/65, :act 0N, :init 0},
  "house" {:freq 2/155, :act 0N, :init 0N},
  "he" {:freq 23/2015, :act 0N, :init 0N},
  "clinton" {:freq 22/2015, :act 0N, :init 0N},
  "s" {:freq 21/2015, :act 0N, :init 0N},
  "impeachment" {:freq 21/2015, :act 0N, :init 0N},
  "with" {:freq 18/2015, :act 0N, :init 0N},
  "said" {:freq 18/2015, :act 0N, :init 0N},
  "president" {:freq 16/2015, :act 0N, :init 0},
  "on" {:freq 14/2015, :act 0N, :init 0},
  "his" {:freq 14/2015, :act 0N, :init 0N},
  "had" {:freq 14/2015, :act 0N, :init 0N},
  "it" {:freq 1/155, :act 0N, :init 0},
  "an" {:freq 1/155, :act 0N, :init 0N},
  "not" {:freq 12/2015, :act 0N, :init 0},
  "i" {:freq 12/2015, :act 0N, :init 0},
  "from" {:freq 12/2015, :act 0N, :init 0N},
  "democrats" {:freq 12/2015, :act 0N, :init 0N},
  "but" {:freq 12/2015, :act 0N, :init 0N},
  "was" {:freq 11/2015, :act 0N, :init 0N},
  "their" {:freq 11/2015, :act 0N, :init 0N},
  "republicans" {:freq 11/2015, :act 0N, :init 0N}},
 "4_1071481"
 {"the" {:freq 27/403, :act 19651/2563886, :init 19651/2563886},
  "of" {:freq 6/155, :act 0, :init 0},
  "to" {:freq 2/65, :act 0, :init 0},
  "a" {:freq 49/2015, :act 0, :init 0},
  "in" {:freq 37/2015, :act 0, :init 0},
  "and"
  {:freq 36/2015, :act 107473/12819430, :init 50898369/7762164865},
  "mr" {:freq 33/2015, :act 0, :init 0},
  "that" {:freq 1/65, :act 784/206765, :init 784/206765},
  "house" {:freq 2/155, :act 0, :init 0},
  "he" {:freq 23/2015, :act 0, :init 0},
  "clinton" {:freq 22/2015, :act 0, :init 0},
  "s" {:freq 21/2015, :act 0, :init 0},
  "impeachment" {:freq 21/2015, :act 0, :init 0},
  "with" {:freq 18/2015, :act 0, :init 0},
  "said" {:freq 18/2015, :act 0, :init 0},
  "president" {:freq 16/2015, :act 121873/12819430, :init 0},
  "on" {:freq 14/2015, :act 5637/12819430, :init 0},
  "his" {:freq 14/2015, :act 0, :init 0},
  "had" {:freq 14/2015, :act 0, :init 0},
  "it" {:freq 1/155, :act 4333/986110, :init 4333/986110},
  "an" {:freq 1/155, :act 0, :init 0},
  "not" {:freq 12/2015, :act 46458/6409715, :init 46458/6409715},
  "i" {:freq 12/2015, :act 96833/6409715, :init 96833/6409715},
  "from" {:freq 12/2015, :act 0, :init 0},
  "democrats" {:freq 12/2015, :act 0, :init 0},
  "but" {:freq 12/2015, :act 0, :init 0},
  "was" {:freq 11/2015, :act 0, :init 0},
  "their" {:freq 11/2015, :act 0, :init 0},
  "republicans" {:freq 11/2015, :act 0, :init 0}},
 "5_1084766"
 {"the" {:freq 475/6362, :act 0, :init 0},
  "of" {:freq 211/6362, :act 0, :init 0},
  "to" {:freq 92/3181, :act 3104/3852191, :init 0},
  "and" {:freq 167/6362, :act 14071/7704382, :init 14071/7704382},
  "i" {:freq 67/3181, :act 0, :init 0},
  "that" {:freq 61/3181, :act 0, :init 0},
  "a" {:freq 117/6362, :act 0, :init 0},
  "president"
  {:freq 111/6362, :act 25331/1100626, :init 25331/1100626},
  "is" {:freq 111/6362, :act 0, :init 0},
  "in" {:freq 51/3181, :act 0, :init 0},
  "not" {:freq 42/3181, :act 0, :init 0},
  "it" {:freq 69/6362, :act 0, :init 0},
  "for" {:freq 69/6362, :act 0, :init 0},
  "this" {:freq 63/6362, :act 0, :init 0},
  "by" {:freq 26/3181, :act 3505/3852191, :init 3505/3852191},
  "s" {:freq 49/6362, :act 176055/7704382, :init 176055/7704382},
  "our" {:freq 49/6362, :act 0, :init 0},
  "have" {:freq 24/3181, :act 0, :init 0},
  "on" {:freq 47/6362, :act 6703/7704382, :init 6703/7704382},
  "be" {:freq 47/6362, :act 0, :init 0},
  "as" {:freq 22/3181, :act 0, :init 0},
  "his" {:freq 20/3181, :act 2902/550313, :init 2902/550313},
  "we" {:freq 39/6362, :act 0, :init 0},
  "my" {:freq 37/6362, :act 0, :init 0},
  "was" {:freq 31/6362, :act 26079/7704382, :init 26079/7704382},
  "will" {:freq 15/3181, :act 0, :init 0},
  "but" {:freq 15/3181, :act 586/550313, :init 586/550313},
  "case" {:freq 29/6362, :act 0, :init 0}},
 "6_1118570"
 {"the" {:freq 85/1211, :act 0, :init 0},
  "president" {:freq 7/173, :act 0, :init 0},
  "mr" {:freq 39/1211, :act 164/1611841, :init 164/1611841},
  "s" {:freq 37/1211, :act 0, :init 0},
  "to" {:freq 36/1211, :act 1735/1611841, :init 1735/1611841},
  "and" {:freq 34/1211, :act 0, :init 0},
  "of" {:freq 29/1211, :act 2575/1611841, :init 2575/1611841},
  "he" {:freq 29/1211, :act 0, :init 0},
  "gore" {:freq 26/1211, :act 0, :init 0},
  "clinton" {:freq 24/1211, :act 0, :init 0},
  "that" {:freq 3/173, :act 0, :init 0},
  "said" {:freq 3/173, :act 0, :init 0},
  "a" {:freq 20/1211, :act 18187/1611841, :init 18187/1611841},
  "is" {:freq 19/1211, :act 0, :init 0},
  "vice" {:freq 18/1211, :act 0, :init 0},
  "his" {:freq 2/173, :act 0, :init 0},
  "in" {:freq 11/1211, :act 35010/1611841, :init 35010/1611841},
  "by" {:freq 11/1211, :act 0, :init 0},
  "with" {:freq 10/1211, :act 0, :init 0},
  "was" {:freq 10/1211, :act 0, :init 0},
  "on" {:freq 10/1211, :act 0, :init 0},
  "for" {:freq 10/1211, :act 0, :init 0},
  "about" {:freq 10/1211, :act 0, :init 0},
  "they" {:freq 8/1211, :act 0, :init 0},
  "relationship" {:freq 8/1211, :act 0, :init 0},
  "has" {:freq 8/1211, :act 0, :init 0},
  "had" {:freq 1/173, :act 226/230263, :init 226/230263},
  "from" {:freq 1/173, :act 0, :init 0}},
 "8_1250985"
 {"the" {:freq 81/1331, :act 0, :init 0},
  "mr" {:freq 43/1331, :act 0, :init 0},
  "to" {:freq 41/1331, :act 0, :init 0},
  "in" {:freq 41/1331, :act 0, :init 0},
  "a" {:freq 37/1331, :act 0, :init 0},
  "of" {:freq 34/1331, :act 0, :init 0},
  "and" {:freq 30/1331, :act 0, :init 0},
  "gore" {:freq 24/1331, :act 0, :init 0},
  "that" {:freq 21/1331, :act 0, :init 0},
  "said" {:freq 19/1331, :act 0, :init 0},
  "s" {:freq 18/1331, :act 0, :init 0},
  "bush" {:freq 18/1331, :act 0, :init 0},
  "florida" {:freq 17/1331, :act 0, :init 0},
  "he" {:freq 16/1331, :act 0, :init 0},
  "vote" {:freq 12/1331, :act 0, :init 0},
  "with" {:freq 10/1331, :act 0, :init 0},
  "votes" {:freq 10/1331, :act 0, :init 0},
  "for" {:freq 10/1331, :act 0, :init 0},
  "transition" {:freq 9/1331, :act 0, :init 0},
  "president" {:freq 9/1331, :act 0, :init 0},
  "not" {:freq 9/1331, :act 0, :init 0},
  "house" {:freq 9/1331, :act 0, :init 0},
  "had" {:freq 9/1331, :act 0, :init 0},
  "election" {:freq 9/1331, :act 0, :init 0},
  "as" {:freq 9/1331, :act 0, :init 0},
  "white" {:freq 8/1331, :act 0, :init 0},
  "his" {:freq 8/1331, :act 0, :init 0},
  "have" {:freq 8/1331, :act 0, :init 0}}}
