0,0,0
0,0.05,0
0,0.1,0
0,0.15000000000000002,0
0,0.2,0
0,0.25,0
0,0.3,0
0,0.35,0
0,0.39999999999999997,0
0,0.44999999999999996,0
0,0.49999999999999994,0
0,0.5499999999999999,0
0,0.6,0
0,0.65,0
0,0.7000000000000001,0
0,0.7500000000000001,0
0,0.8000000000000002,0
0,0.8500000000000002,0
0,0.9000000000000002,0
0,0.9500000000000003,0
0.05,0,0
0.05,0.05,0
0.05,0.1,0.007717396108502686
0.05,0.15000000000000002,0.006988160373344798
0.05,0.2,0.010738928646659523
0.05,0.25,0.014083664915521276
0.05,0.3,0.014083664915521276
0.05,0.35,0.014083664915521276
0.05,0.39999999999999997,0.014083664915521276
0.05,0.44999999999999996,0.014083664915521276
0.05,0.49999999999999994,0.014809500456842777
0.05,0.5499999999999999,0.014809305355942555
0.05,0.6,0.014809305355942555
0.05,0.65,0.014809305355942555
0.05,0.7000000000000001,0.014809305355942555
0.05,0.7500000000000001,0.014809305355942555
0.05,0.8000000000000002,0.014809305355942555
0.05,0.8500000000000002,0.014809305355942555
0.05,0.9000000000000002,0.014809305355942555
0.05,0.9500000000000003,0.014809305355942555
0.1,0,0
0.1,0.05,0
0.1,0.1,0.03286558791536568
0.1,0.15000000000000002,0.03901282572244025
0.1,0.2,0.03901282572244025
0.1,0.25,0.03901282572244025
0.1,0.3,0.03901282572244025
0.1,0.35,0.03901282572244025
0.1,0.39999999999999997,0.03901282572244025
0.1,0.44999999999999996,0.03901282572244025
0.1,0.49999999999999994,0.03901282572244025
0.1,0.5499999999999999,0.03901282572244025
0.1,0.6,0.03901282572244025
0.1,0.65,0.03901282572244025
0.1,0.7000000000000001,0.03901282572244025
0.1,0.7500000000000001,0.03901282572244025
0.1,0.8000000000000002,0.03901282572244025
0.1,0.8500000000000002,0.03901282572244025
0.1,0.9000000000000002,0.03901282572244025
0.1,0.9500000000000003,0.03901282572244025
0.15000000000000002,0,0
0.15000000000000002,0.05,0
0.15000000000000002,0.1,0.03286558791536568
0.15000000000000002,0.15000000000000002,0.04041524490639035
0.15000000000000002,0.2,0.03958230275950765
0.15000000000000002,0.25,0.038377657477689474
0.15000000000000002,0.3,0.03959712956951915
0.15000000000000002,0.35,0.04637193147695422
0.15000000000000002,0.39999999999999997,0.047410392070205795
0.15000000000000002,0.44999999999999996,0.049675321186125214
0.15000000000000002,0.49999999999999994,0.049675321186125214
0.15000000000000002,0.5499999999999999,0.049675321186125214
0.15000000000000002,0.6,0.049675321186125214
0.15000000000000002,0.65,0.049675321186125214
0.15000000000000002,0.7000000000000001,0.049675321186125214
0.15000000000000002,0.7500000000000001,0.049675321186125214
0.15000000000000002,0.8000000000000002,0.049675321186125214
0.15000000000000002,0.8500000000000002,0.049675321186125214
0.15000000000000002,0.9000000000000002,0.049675321186125214
0.15000000000000002,0.9500000000000003,0.049675321186125214
0.2,0,0
0.2,0.05,0
0.2,0.1,0.03286558791536568
0.2,0.15000000000000002,0.04041524490639035
0.2,0.2,0.03958230275950765
0.2,0.25,0.038377657477689474
0.2,0.3,0.03959712956951915
0.2,0.35,0.04637193147695422
0.2,0.39999999999999997,0.047410392070205795
0.2,0.44999999999999996,0.050176549630874076
0.2,0.49999999999999994,0.05364071152984069
0.2,0.5499999999999999,0.053624521797934685
0.2,0.6,0.053624521797934685
0.2,0.65,0.053624521797934685
0.2,0.7000000000000001,0.053624521797934685
0.2,0.7500000000000001,0.053624521797934685
0.2,0.8000000000000002,0.053624521797934685
0.2,0.8500000000000002,0.053624521797934685
0.2,0.9000000000000002,0.053624521797934685
0.2,0.9500000000000003,0.053624521797934685
0.25,0,0
0.25,0.05,0
0.25,0.1,0.03286558791536568
0.25,0.15000000000000002,0.04041524490639035
0.25,0.2,0.03958230275950765
0.25,0.25,0.038377657477689474
0.25,0.3,0.03959712956951915
0.25,0.35,0.04637193147695422
0.25,0.39999999999999997,0.047410392070205795
0.25,0.44999999999999996,0.050176549630874076
0.25,0.49999999999999994,0.05364071152984069
0.25,0.5499999999999999,0.053624521797934685
0.25,0.6,0.053624521797934685
0.25,0.65,0.053624521797934685
0.25,0.7000000000000001,0.053624521797934685
0.25,0.7500000000000001,0.053624521797934685
0.25,0.8000000000000002,0.053624521797934685
0.25,0.8500000000000002,0.053624521797934685
0.25,0.9000000000000002,0.053624521797934685
0.25,0.9500000000000003,0.053624521797934685
0.3,0,0
0.3,0.05,0
0.3,0.1,0.03286558791536568
0.3,0.15000000000000002,0.04041524490639035
0.3,0.2,0.03958230275950765
0.3,0.25,0.038377657477689474
0.3,0.3,0.03959712956951915
0.3,0.35,0.04637193147695422
0.3,0.39999999999999997,0.047410392070205795
0.3,0.44999999999999996,0.050176549630874076
0.3,0.49999999999999994,0.05364071152984069
0.3,0.5499999999999999,0.053624521797934685
0.3,0.6,0.053624521797934685
0.3,0.65,0.053624521797934685
0.3,0.7000000000000001,0.053624521797934685
0.3,0.7500000000000001,0.053624521797934685
0.3,0.8000000000000002,0.053624521797934685
0.3,0.8500000000000002,0.053624521797934685
0.3,0.9000000000000002,0.053624521797934685
0.3,0.9500000000000003,0.053624521797934685
0.35,0,0
0.35,0.05,0
0.35,0.1,0.03286558791536568
0.35,0.15000000000000002,0.04041524490639035
0.35,0.2,0.03958230275950765
0.35,0.25,0.038377657477689474
0.35,0.3,0.03959712956951915
0.35,0.35,0.04637193147695422
0.35,0.39999999999999997,0.047410392070205795
0.35,0.44999999999999996,0.050176549630874076
0.35,0.49999999999999994,0.05364071152984069
0.35,0.5499999999999999,0.053624521797934685
0.35,0.6,0.053624521797934685
0.35,0.65,0.053624521797934685
0.35,0.7000000000000001,0.053624521797934685
0.35,0.7500000000000001,0.053624521797934685
0.35,0.8000000000000002,0.053624521797934685
0.35,0.8500000000000002,0.053624521797934685
0.35,0.9000000000000002,0.053624521797934685
0.35,0.9500000000000003,0.053624521797934685
0.39999999999999997,0,0
0.39999999999999997,0.05,0
0.39999999999999997,0.1,0.03286558791536568
0.39999999999999997,0.15000000000000002,0.04041524490639035
0.39999999999999997,0.2,0.03958230275950765
0.39999999999999997,0.25,0.038377657477689474
0.39999999999999997,0.3,0.03959712956951915
0.39999999999999997,0.35,0.04637193147695422
0.39999999999999997,0.39999999999999997,0.047410392070205795
0.39999999999999997,0.44999999999999996,0.050176549630874076
0.39999999999999997,0.49999999999999994,0.05364071152984069
0.39999999999999997,0.5499999999999999,0.053624521797934685
0.39999999999999997,0.6,0.053624521797934685
0.39999999999999997,0.65,0.053624521797934685
0.39999999999999997,0.7000000000000001,0.053624521797934685
0.39999999999999997,0.7500000000000001,0.053624521797934685
0.39999999999999997,0.8000000000000002,0.053624521797934685
0.39999999999999997,0.8500000000000002,0.053624521797934685
0.39999999999999997,0.9000000000000002,0.053624521797934685
0.39999999999999997,0.9500000000000003,0.053624521797934685
0.44999999999999996,0,0
0.44999999999999996,0.05,0
0.44999999999999996,0.1,0.03286558791536568
0.44999999999999996,0.15000000000000002,0.04041524490639035
0.44999999999999996,0.2,0.03958230275950765
0.44999999999999996,0.25,0.038377657477689474
0.44999999999999996,0.3,0.03959712956951915
0.44999999999999996,0.35,0.04637193147695422
0.44999999999999996,0.39999999999999997,0.047410392070205795
0.44999999999999996,0.44999999999999996,0.050176549630874076
0.44999999999999996,0.49999999999999994,0.05364071152984069
0.44999999999999996,0.5499999999999999,0.053624521797934685
0.44999999999999996,0.6,0.053624521797934685
0.44999999999999996,0.65,0.053624521797934685
0.44999999999999996,0.7000000000000001,0.053624521797934685
0.44999999999999996,0.7500000000000001,0.053624521797934685
0.44999999999999996,0.8000000000000002,0.053624521797934685
0.44999999999999996,0.8500000000000002,0.053624521797934685
0.44999999999999996,0.9000000000000002,0.053624521797934685
0.44999999999999996,0.9500000000000003,0.053624521797934685
0.49999999999999994,0,0
0.49999999999999994,0.05,0
0.49999999999999994,0.1,0.03286558791536568
0.49999999999999994,0.15000000000000002,0.04041524490639035
0.49999999999999994,0.2,0.03958230275950765
0.49999999999999994,0.25,0.038377657477689474
0.49999999999999994,0.3,0.03959712956951915
0.49999999999999994,0.35,0.04637193147695422
0.49999999999999994,0.39999999999999997,0.047410392070205795
0.49999999999999994,0.44999999999999996,0.050176549630874076
0.49999999999999994,0.49999999999999994,0.05364071152984069
0.49999999999999994,0.5499999999999999,0.053624521797934685
0.49999999999999994,0.6,0.053624521797934685
0.49999999999999994,0.65,0.053624521797934685
0.49999999999999994,0.7000000000000001,0.053624521797934685
0.49999999999999994,0.7500000000000001,0.053624521797934685
0.49999999999999994,0.8000000000000002,0.053624521797934685
0.49999999999999994,0.8500000000000002,0.053624521797934685
0.49999999999999994,0.9000000000000002,0.053624521797934685
0.49999999999999994,0.9500000000000003,0.053624521797934685
0.5499999999999999,0,0
0.5499999999999999,0.05,0
0.5499999999999999,0.1,0.03286558791536568
0.5499999999999999,0.15000000000000002,0.04041524490639035
0.5499999999999999,0.2,0.03958230275950765
0.5499999999999999,0.25,0.038377657477689474
0.5499999999999999,0.3,0.03959712956951915
0.5499999999999999,0.35,0.04637193147695422
0.5499999999999999,0.39999999999999997,0.047410392070205795
0.5499999999999999,0.44999999999999996,0.050176549630874076
0.5499999999999999,0.49999999999999994,0.05364071152984069
0.5499999999999999,0.5499999999999999,0.053624521797934685
0.5499999999999999,0.6,0.053624521797934685
0.5499999999999999,0.65,0.053624521797934685
0.5499999999999999,0.7000000000000001,0.053624521797934685
0.5499999999999999,0.7500000000000001,0.053624521797934685
0.5499999999999999,0.8000000000000002,0.053624521797934685
0.5499999999999999,0.8500000000000002,0.053624521797934685
0.5499999999999999,0.9000000000000002,0.053624521797934685
0.5499999999999999,0.9500000000000003,0.053624521797934685
0.6,0,0
0.6,0.05,0
0.6,0.1,0.03286558791536568
0.6,0.15000000000000002,0.04041524490639035
0.6,0.2,0.03958230275950765
0.6,0.25,0.038377657477689474
0.6,0.3,0.03959712956951915
0.6,0.35,0.04637193147695422
0.6,0.39999999999999997,0.047410392070205795
0.6,0.44999999999999996,0.050176549630874076
0.6,0.49999999999999994,0.05364071152984069
0.6,0.5499999999999999,0.053624521797934685
0.6,0.6,0.053624521797934685
0.6,0.65,0.053624521797934685
0.6,0.7000000000000001,0.053624521797934685
0.6,0.7500000000000001,0.053624521797934685
0.6,0.8000000000000002,0.053624521797934685
0.6,0.8500000000000002,0.053624521797934685
0.6,0.9000000000000002,0.053624521797934685
0.6,0.9500000000000003,0.053624521797934685
0.65,0,0
0.65,0.05,0
0.65,0.1,0.03286558791536568
0.65,0.15000000000000002,0.04041524490639035
0.65,0.2,0.03958230275950765
0.65,0.25,0.038377657477689474
0.65,0.3,0.03959712956951915
0.65,0.35,0.04637193147695422
0.65,0.39999999999999997,0.047410392070205795
0.65,0.44999999999999996,0.050176549630874076
0.65,0.49999999999999994,0.05364071152984069
0.65,0.5499999999999999,0.053624521797934685
0.65,0.6,0.053624521797934685
0.65,0.65,0.053624521797934685
0.65,0.7000000000000001,0.053624521797934685
0.65,0.7500000000000001,0.053624521797934685
0.65,0.8000000000000002,0.053624521797934685
0.65,0.8500000000000002,0.053624521797934685
0.65,0.9000000000000002,0.053624521797934685
0.65,0.9500000000000003,0.053624521797934685
0.7000000000000001,0,0
0.7000000000000001,0.05,0
0.7000000000000001,0.1,0.03286558791536568
0.7000000000000001,0.15000000000000002,0.04041524490639035
0.7000000000000001,0.2,0.03958230275950765
0.7000000000000001,0.25,0.038377657477689474
0.7000000000000001,0.3,0.03959712956951915
0.7000000000000001,0.35,0.04637193147695422
0.7000000000000001,0.39999999999999997,0.047410392070205795
0.7000000000000001,0.44999999999999996,0.050176549630874076
0.7000000000000001,0.49999999999999994,0.05364071152984069
0.7000000000000001,0.5499999999999999,0.053624521797934685
0.7000000000000001,0.6,0.053624521797934685
0.7000000000000001,0.65,0.053624521797934685
0.7000000000000001,0.7000000000000001,0.053624521797934685
0.7000000000000001,0.7500000000000001,0.053624521797934685
0.7000000000000001,0.8000000000000002,0.053624521797934685
0.7000000000000001,0.8500000000000002,0.053624521797934685
0.7000000000000001,0.9000000000000002,0.053624521797934685
0.7000000000000001,0.9500000000000003,0.053624521797934685
0.7500000000000001,0,0
0.7500000000000001,0.05,0
0.7500000000000001,0.1,0.03286558791536568
0.7500000000000001,0.15000000000000002,0.04041524490639035
0.7500000000000001,0.2,0.03958230275950765
0.7500000000000001,0.25,0.038377657477689474
0.7500000000000001,0.3,0.03959712956951915
0.7500000000000001,0.35,0.04637193147695422
0.7500000000000001,0.39999999999999997,0.047410392070205795
0.7500000000000001,0.44999999999999996,0.050176549630874076
0.7500000000000001,0.49999999999999994,0.05364071152984069
0.7500000000000001,0.5499999999999999,0.053624521797934685
0.7500000000000001,0.6,0.053624521797934685
0.7500000000000001,0.65,0.053624521797934685
0.7500000000000001,0.7000000000000001,0.053624521797934685
0.7500000000000001,0.7500000000000001,0.053624521797934685
0.7500000000000001,0.8000000000000002,0.053624521797934685
0.7500000000000001,0.8500000000000002,0.053624521797934685
0.7500000000000001,0.9000000000000002,0.053624521797934685
0.7500000000000001,0.9500000000000003,0.053624521797934685
0.8000000000000002,0,0
0.8000000000000002,0.05,0
0.8000000000000002,0.1,0.03286558791536568
0.8000000000000002,0.15000000000000002,0.04041524490639035
0.8000000000000002,0.2,0.03958230275950765
0.8000000000000002,0.25,0.038377657477689474
0.8000000000000002,0.3,0.03959712956951915
0.8000000000000002,0.35,0.04637193147695422
0.8000000000000002,0.39999999999999997,0.047410392070205795
0.8000000000000002,0.44999999999999996,0.050176549630874076
0.8000000000000002,0.49999999999999994,0.05364071152984069
0.8000000000000002,0.5499999999999999,0.053624521797934685
0.8000000000000002,0.6,0.053624521797934685
0.8000000000000002,0.65,0.053624521797934685
0.8000000000000002,0.7000000000000001,0.053624521797934685
0.8000000000000002,0.7500000000000001,0.053624521797934685
0.8000000000000002,0.8000000000000002,0.053624521797934685
0.8000000000000002,0.8500000000000002,0.053624521797934685
0.8000000000000002,0.9000000000000002,0.053624521797934685
0.8000000000000002,0.9500000000000003,0.053624521797934685
0.8500000000000002,0,0
0.8500000000000002,0.05,0
0.8500000000000002,0.1,0.03286558791536568
0.8500000000000002,0.15000000000000002,0.04041524490639035
0.8500000000000002,0.2,0.03958230275950765
0.8500000000000002,0.25,0.038377657477689474
0.8500000000000002,0.3,0.03959712956951915
0.8500000000000002,0.35,0.04637193147695422
0.8500000000000002,0.39999999999999997,0.047410392070205795
0.8500000000000002,0.44999999999999996,0.050176549630874076
0.8500000000000002,0.49999999999999994,0.05364071152984069
0.8500000000000002,0.5499999999999999,0.053624521797934685
0.8500000000000002,0.6,0.053624521797934685
0.8500000000000002,0.65,0.053624521797934685
0.8500000000000002,0.7000000000000001,0.053624521797934685
0.8500000000000002,0.7500000000000001,0.053624521797934685
0.8500000000000002,0.8000000000000002,0.053624521797934685
0.8500000000000002,0.8500000000000002,0.053624521797934685
0.8500000000000002,0.9000000000000002,0.053624521797934685
0.8500000000000002,0.9500000000000003,0.053624521797934685
0.9000000000000002,0,0
0.9000000000000002,0.05,0
0.9000000000000002,0.1,0.03286558791536568
0.9000000000000002,0.15000000000000002,0.04041524490639035
0.9000000000000002,0.2,0.03958230275950765
0.9000000000000002,0.25,0.038377657477689474
0.9000000000000002,0.3,0.03959712956951915
0.9000000000000002,0.35,0.04637193147695422
0.9000000000000002,0.39999999999999997,0.047410392070205795
0.9000000000000002,0.44999999999999996,0.050176549630874076
0.9000000000000002,0.49999999999999994,0.05364071152984069
0.9000000000000002,0.5499999999999999,0.053624521797934685
0.9000000000000002,0.6,0.053624521797934685
0.9000000000000002,0.65,0.053624521797934685
0.9000000000000002,0.7000000000000001,0.053624521797934685
0.9000000000000002,0.7500000000000001,0.053624521797934685
0.9000000000000002,0.8000000000000002,0.053624521797934685
0.9000000000000002,0.8500000000000002,0.053624521797934685
0.9000000000000002,0.9000000000000002,0.053624521797934685
0.9000000000000002,0.9500000000000003,0.053624521797934685
0.9500000000000003,0,0
0.9500000000000003,0.05,0
0.9500000000000003,0.1,0.03286558791536568
0.9500000000000003,0.15000000000000002,0.04041524490639035
0.9500000000000003,0.2,0.03958230275950765
0.9500000000000003,0.25,0.038377657477689474
0.9500000000000003,0.3,0.03959712956951915
0.9500000000000003,0.35,0.04637193147695422
0.9500000000000003,0.39999999999999997,0.047410392070205795
0.9500000000000003,0.44999999999999996,0.050176549630874076
0.9500000000000003,0.49999999999999994,0.05364071152984069
0.9500000000000003,0.5499999999999999,0.053624521797934685
0.9500000000000003,0.6,0.053624521797934685
0.9500000000000003,0.65,0.053624521797934685
0.9500000000000003,0.7000000000000001,0.053624521797934685
0.9500000000000003,0.7500000000000001,0.053624521797934685
0.9500000000000003,0.8000000000000002,0.053624521797934685
0.9500000000000003,0.8500000000000002,0.053624521797934685
0.9500000000000003,0.9000000000000002,0.053624521797934685
0.9500000000000003,0.9500000000000003,0.053624521797934685
