0,0,0
0,0.1,0
0,0.2,0
0,0.30000000000000004,0
0,0.4,0
0,0.5,0
0,0.6,0
0,0.7,0
0,0.7999999999999999,0
0,0.8999999999999999,0
0,0.9999999999999999,0
0,1.0999999999999999,0
0,1.2,0
0,1.3,0
0,1.4000000000000001,0
0,1.5000000000000002,0
0,1.6000000000000003,0
0,1.7000000000000004,0
0,1.8000000000000005,0
0,1.9000000000000006,0
0.1,0,0
0.1,0.1,0.03286558791536568
0.1,0.2,0.03901282572244025
0.1,0.30000000000000004,0.03901282572244025
0.1,0.4,0.03901282572244025
0.1,0.5,0.03901282572244025
0.1,0.6,0.03901282572244025
0.1,0.7,0.03901282572244025
0.1,0.7999999999999999,0.03901282572244025
0.1,0.8999999999999999,0.03901282572244025
0.1,0.9999999999999999,0.03901282572244025
0.1,1.0999999999999999,0.03901282572244025
0.1,1.2,0.03901282572244025
0.1,1.3,0.03901282572244025
0.1,1.4000000000000001,0.03901282572244025
0.1,1.5000000000000002,0.03901282572244025
0.1,1.6000000000000003,0.03901282572244025
0.1,1.7000000000000004,0.03901282572244025
0.1,1.8000000000000005,0.03901282572244025
0.1,1.9000000000000006,0.03901282572244025
0.2,0,0
0.2,0.1,0.03286558791536568
0.2,0.2,0.03958230275950765
0.2,0.30000000000000004,0.03959712956951915
0.2,0.4,0.047410392070205795
0.2,0.5,0.05364071152984069
0.2,0.6,0.053624521797934685
0.2,0.7,0.053624521797934685
0.2,0.7999999999999999,0.053624521797934685
0.2,0.8999999999999999,0.053624521797934685
0.2,0.9999999999999999,0.053624521797934685
0.2,1.0999999999999999,0.053624521797934685
0.2,1.2,0.053624521797934685
0.2,1.3,0.053624521797934685
0.2,1.4000000000000001,0.053624521797934685
0.2,1.5000000000000002,0.053624521797934685
0.2,1.6000000000000003,0.053624521797934685
0.2,1.7000000000000004,0.053624521797934685
0.2,1.8000000000000005,0.053624521797934685
0.2,1.9000000000000006,0.053624521797934685
0.30000000000000004,0,0
0.30000000000000004,0.1,0.03286558791536568
0.30000000000000004,0.2,0.03958230275950765
0.30000000000000004,0.30000000000000004,0.03959712956951915
0.30000000000000004,0.4,0.047410392070205795
0.30000000000000004,0.5,0.05364071152984069
0.30000000000000004,0.6,0.053624521797934685
0.30000000000000004,0.7,0.053624521797934685
0.30000000000000004,0.7999999999999999,0.053624521797934685
0.30000000000000004,0.8999999999999999,0.053624521797934685
0.30000000000000004,0.9999999999999999,0.053624521797934685
0.30000000000000004,1.0999999999999999,0.053624521797934685
0.30000000000000004,1.2,0.053624521797934685
0.30000000000000004,1.3,0.053624521797934685
0.30000000000000004,1.4000000000000001,0.053624521797934685
0.30000000000000004,1.5000000000000002,0.053624521797934685
0.30000000000000004,1.6000000000000003,0.053624521797934685
0.30000000000000004,1.7000000000000004,0.053624521797934685
0.30000000000000004,1.8000000000000005,0.053624521797934685
0.30000000000000004,1.9000000000000006,0.053624521797934685
0.4,0,0
0.4,0.1,0.03286558791536568
0.4,0.2,0.03958230275950765
0.4,0.30000000000000004,0.03959712956951915
0.4,0.4,0.047410392070205795
0.4,0.5,0.05364071152984069
0.4,0.6,0.053624521797934685
0.4,0.7,0.053624521797934685
0.4,0.7999999999999999,0.053624521797934685
0.4,0.8999999999999999,0.053624521797934685
0.4,0.9999999999999999,0.053624521797934685
0.4,1.0999999999999999,0.053624521797934685
0.4,1.2,0.053624521797934685
0.4,1.3,0.053624521797934685
0.4,1.4000000000000001,0.053624521797934685
0.4,1.5000000000000002,0.053624521797934685
0.4,1.6000000000000003,0.053624521797934685
0.4,1.7000000000000004,0.053624521797934685
0.4,1.8000000000000005,0.053624521797934685
0.4,1.9000000000000006,0.053624521797934685
0.5,0,0
0.5,0.1,0.03286558791536568
0.5,0.2,0.03958230275950765
0.5,0.30000000000000004,0.03959712956951915
0.5,0.4,0.047410392070205795
0.5,0.5,0.05364071152984069
0.5,0.6,0.053624521797934685
0.5,0.7,0.053624521797934685
0.5,0.7999999999999999,0.053624521797934685
0.5,0.8999999999999999,0.053624521797934685
0.5,0.9999999999999999,0.053624521797934685
0.5,1.0999999999999999,0.053624521797934685
0.5,1.2,0.053624521797934685
0.5,1.3,0.053624521797934685
0.5,1.4000000000000001,0.053624521797934685
0.5,1.5000000000000002,0.053624521797934685
0.5,1.6000000000000003,0.053624521797934685
0.5,1.7000000000000004,0.053624521797934685
0.5,1.8000000000000005,0.053624521797934685
0.5,1.9000000000000006,0.053624521797934685
0.6,0,0
0.6,0.1,0.03286558791536568
0.6,0.2,0.03958230275950765
0.6,0.30000000000000004,0.03959712956951915
0.6,0.4,0.047410392070205795
0.6,0.5,0.05364071152984069
0.6,0.6,0.053624521797934685
0.6,0.7,0.053624521797934685
0.6,0.7999999999999999,0.053624521797934685
0.6,0.8999999999999999,0.053624521797934685
0.6,0.9999999999999999,0.053624521797934685
0.6,1.0999999999999999,0.053624521797934685
0.6,1.2,0.053624521797934685
0.6,1.3,0.053624521797934685
0.6,1.4000000000000001,0.053624521797934685
0.6,1.5000000000000002,0.053624521797934685
0.6,1.6000000000000003,0.053624521797934685
0.6,1.7000000000000004,0.053624521797934685
0.6,1.8000000000000005,0.053624521797934685
0.6,1.9000000000000006,0.053624521797934685
0.7,0,0
0.7,0.1,0.03286558791536568
0.7,0.2,0.03958230275950765
0.7,0.30000000000000004,0.03959712956951915
0.7,0.4,0.047410392070205795
0.7,0.5,0.05364071152984069
0.7,0.6,0.053624521797934685
0.7,0.7,0.053624521797934685
0.7,0.7999999999999999,0.053624521797934685
0.7,0.8999999999999999,0.053624521797934685
0.7,0.9999999999999999,0.053624521797934685
0.7,1.0999999999999999,0.053624521797934685
0.7,1.2,0.053624521797934685
0.7,1.3,0.053624521797934685
0.7,1.4000000000000001,0.053624521797934685
0.7,1.5000000000000002,0.053624521797934685
0.7,1.6000000000000003,0.053624521797934685
0.7,1.7000000000000004,0.053624521797934685
0.7,1.8000000000000005,0.053624521797934685
0.7,1.9000000000000006,0.053624521797934685
0.7999999999999999,0,0
0.7999999999999999,0.1,0.03286558791536568
0.7999999999999999,0.2,0.03958230275950765
0.7999999999999999,0.30000000000000004,0.03959712956951915
0.7999999999999999,0.4,0.047410392070205795
0.7999999999999999,0.5,0.05364071152984069
0.7999999999999999,0.6,0.053624521797934685
0.7999999999999999,0.7,0.053624521797934685
0.7999999999999999,0.7999999999999999,0.053624521797934685
0.7999999999999999,0.8999999999999999,0.053624521797934685
0.7999999999999999,0.9999999999999999,0.053624521797934685
0.7999999999999999,1.0999999999999999,0.053624521797934685
0.7999999999999999,1.2,0.053624521797934685
0.7999999999999999,1.3,0.053624521797934685
0.7999999999999999,1.4000000000000001,0.053624521797934685
0.7999999999999999,1.5000000000000002,0.053624521797934685
0.7999999999999999,1.6000000000000003,0.053624521797934685
0.7999999999999999,1.7000000000000004,0.053624521797934685
0.7999999999999999,1.8000000000000005,0.053624521797934685
0.7999999999999999,1.9000000000000006,0.053624521797934685
0.8999999999999999,0,0
0.8999999999999999,0.1,0.03286558791536568
0.8999999999999999,0.2,0.03958230275950765
0.8999999999999999,0.30000000000000004,0.03959712956951915
0.8999999999999999,0.4,0.047410392070205795
0.8999999999999999,0.5,0.05364071152984069
0.8999999999999999,0.6,0.053624521797934685
0.8999999999999999,0.7,0.053624521797934685
0.8999999999999999,0.7999999999999999,0.053624521797934685
0.8999999999999999,0.8999999999999999,0.053624521797934685
0.8999999999999999,0.9999999999999999,0.053624521797934685
0.8999999999999999,1.0999999999999999,0.053624521797934685
0.8999999999999999,1.2,0.053624521797934685
0.8999999999999999,1.3,0.053624521797934685
0.8999999999999999,1.4000000000000001,0.053624521797934685
0.8999999999999999,1.5000000000000002,0.053624521797934685
0.8999999999999999,1.6000000000000003,0.053624521797934685
0.8999999999999999,1.7000000000000004,0.053624521797934685
0.8999999999999999,1.8000000000000005,0.053624521797934685
0.8999999999999999,1.9000000000000006,0.053624521797934685
0.9999999999999999,0,0
0.9999999999999999,0.1,0.03286558791536568
0.9999999999999999,0.2,0.03958230275950765
0.9999999999999999,0.30000000000000004,0.03959712956951915
0.9999999999999999,0.4,0.047410392070205795
0.9999999999999999,0.5,0.05364071152984069
0.9999999999999999,0.6,0.053624521797934685
0.9999999999999999,0.7,0.053624521797934685
0.9999999999999999,0.7999999999999999,0.053624521797934685
0.9999999999999999,0.8999999999999999,0.053624521797934685
0.9999999999999999,0.9999999999999999,0.053624521797934685
0.9999999999999999,1.0999999999999999,0.053624521797934685
0.9999999999999999,1.2,0.053624521797934685
0.9999999999999999,1.3,0.053624521797934685
0.9999999999999999,1.4000000000000001,0.053624521797934685
0.9999999999999999,1.5000000000000002,0.053624521797934685
0.9999999999999999,1.6000000000000003,0.053624521797934685
0.9999999999999999,1.7000000000000004,0.053624521797934685
0.9999999999999999,1.8000000000000005,0.053624521797934685
0.9999999999999999,1.9000000000000006,0.053624521797934685
1.0999999999999999,0,0
1.0999999999999999,0.1,0.03286558791536568
1.0999999999999999,0.2,0.03958230275950765
1.0999999999999999,0.30000000000000004,0.03959712956951915
1.0999999999999999,0.4,0.047410392070205795
1.0999999999999999,0.5,0.05364071152984069
1.0999999999999999,0.6,0.053624521797934685
1.0999999999999999,0.7,0.053624521797934685
1.0999999999999999,0.7999999999999999,0.053624521797934685
1.0999999999999999,0.8999999999999999,0.053624521797934685
1.0999999999999999,0.9999999999999999,0.053624521797934685
1.0999999999999999,1.0999999999999999,0.053624521797934685
1.0999999999999999,1.2,0.053624521797934685
1.0999999999999999,1.3,0.053624521797934685
1.0999999999999999,1.4000000000000001,0.053624521797934685
1.0999999999999999,1.5000000000000002,0.053624521797934685
1.0999999999999999,1.6000000000000003,0.053624521797934685
1.0999999999999999,1.7000000000000004,0.053624521797934685
1.0999999999999999,1.8000000000000005,0.053624521797934685
1.0999999999999999,1.9000000000000006,0.053624521797934685
1.2,0,0
1.2,0.1,0.03286558791536568
1.2,0.2,0.03958230275950765
1.2,0.30000000000000004,0.03959712956951915
1.2,0.4,0.047410392070205795
1.2,0.5,0.05364071152984069
1.2,0.6,0.053624521797934685
1.2,0.7,0.053624521797934685
1.2,0.7999999999999999,0.053624521797934685
1.2,0.8999999999999999,0.053624521797934685
1.2,0.9999999999999999,0.053624521797934685
1.2,1.0999999999999999,0.053624521797934685
1.2,1.2,0.053624521797934685
1.2,1.3,0.053624521797934685
1.2,1.4000000000000001,0.053624521797934685
1.2,1.5000000000000002,0.053624521797934685
1.2,1.6000000000000003,0.053624521797934685
1.2,1.7000000000000004,0.053624521797934685
1.2,1.8000000000000005,0.053624521797934685
1.2,1.9000000000000006,0.053624521797934685
1.3,0,0
1.3,0.1,0.03286558791536568
1.3,0.2,0.03958230275950765
1.3,0.30000000000000004,0.03959712956951915
1.3,0.4,0.047410392070205795
1.3,0.5,0.05364071152984069
1.3,0.6,0.053624521797934685
1.3,0.7,0.053624521797934685
1.3,0.7999999999999999,0.053624521797934685
1.3,0.8999999999999999,0.053624521797934685
1.3,0.9999999999999999,0.053624521797934685
1.3,1.0999999999999999,0.053624521797934685
1.3,1.2,0.053624521797934685
1.3,1.3,0.053624521797934685
1.3,1.4000000000000001,0.053624521797934685
1.3,1.5000000000000002,0.053624521797934685
1.3,1.6000000000000003,0.053624521797934685
1.3,1.7000000000000004,0.053624521797934685
1.3,1.8000000000000005,0.053624521797934685
1.3,1.9000000000000006,0.053624521797934685
1.4000000000000001,0,0
1.4000000000000001,0.1,0.03286558791536568
1.4000000000000001,0.2,0.03958230275950765
1.4000000000000001,0.30000000000000004,0.03959712956951915
1.4000000000000001,0.4,0.047410392070205795
1.4000000000000001,0.5,0.05364071152984069
1.4000000000000001,0.6,0.053624521797934685
1.4000000000000001,0.7,0.053624521797934685
1.4000000000000001,0.7999999999999999,0.053624521797934685
1.4000000000000001,0.8999999999999999,0.053624521797934685
1.4000000000000001,0.9999999999999999,0.053624521797934685
1.4000000000000001,1.0999999999999999,0.053624521797934685
1.4000000000000001,1.2,0.053624521797934685
1.4000000000000001,1.3,0.053624521797934685
1.4000000000000001,1.4000000000000001,0.053624521797934685
1.4000000000000001,1.5000000000000002,0.053624521797934685
1.4000000000000001,1.6000000000000003,0.053624521797934685
1.4000000000000001,1.7000000000000004,0.053624521797934685
1.4000000000000001,1.8000000000000005,0.053624521797934685
1.4000000000000001,1.9000000000000006,0.053624521797934685
1.5000000000000002,0,0
1.5000000000000002,0.1,0.03286558791536568
1.5000000000000002,0.2,0.03958230275950765
1.5000000000000002,0.30000000000000004,0.03959712956951915
1.5000000000000002,0.4,0.047410392070205795
1.5000000000000002,0.5,0.05364071152984069
1.5000000000000002,0.6,0.053624521797934685
1.5000000000000002,0.7,0.053624521797934685
1.5000000000000002,0.7999999999999999,0.053624521797934685
1.5000000000000002,0.8999999999999999,0.053624521797934685
1.5000000000000002,0.9999999999999999,0.053624521797934685
1.5000000000000002,1.0999999999999999,0.053624521797934685
1.5000000000000002,1.2,0.053624521797934685
1.5000000000000002,1.3,0.053624521797934685
1.5000000000000002,1.4000000000000001,0.053624521797934685
1.5000000000000002,1.5000000000000002,0.053624521797934685
1.5000000000000002,1.6000000000000003,0.053624521797934685
1.5000000000000002,1.7000000000000004,0.053624521797934685
1.5000000000000002,1.8000000000000005,0.053624521797934685
1.5000000000000002,1.9000000000000006,0.053624521797934685
1.6000000000000003,0,0
1.6000000000000003,0.1,0.03286558791536568
1.6000000000000003,0.2,0.03958230275950765
1.6000000000000003,0.30000000000000004,0.03959712956951915
1.6000000000000003,0.4,0.047410392070205795
1.6000000000000003,0.5,0.05364071152984069
1.6000000000000003,0.6,0.053624521797934685
1.6000000000000003,0.7,0.053624521797934685
1.6000000000000003,0.7999999999999999,0.053624521797934685
1.6000000000000003,0.8999999999999999,0.053624521797934685
1.6000000000000003,0.9999999999999999,0.053624521797934685
1.6000000000000003,1.0999999999999999,0.053624521797934685
1.6000000000000003,1.2,0.053624521797934685
1.6000000000000003,1.3,0.053624521797934685
1.6000000000000003,1.4000000000000001,0.053624521797934685
1.6000000000000003,1.5000000000000002,0.053624521797934685
1.6000000000000003,1.6000000000000003,0.053624521797934685
1.6000000000000003,1.7000000000000004,0.053624521797934685
1.6000000000000003,1.8000000000000005,0.053624521797934685
1.6000000000000003,1.9000000000000006,0.053624521797934685
1.7000000000000004,0,0
1.7000000000000004,0.1,0.03286558791536568
1.7000000000000004,0.2,0.03958230275950765
1.7000000000000004,0.30000000000000004,0.03959712956951915
1.7000000000000004,0.4,0.047410392070205795
1.7000000000000004,0.5,0.05364071152984069
1.7000000000000004,0.6,0.053624521797934685
1.7000000000000004,0.7,0.053624521797934685
1.7000000000000004,0.7999999999999999,0.053624521797934685
1.7000000000000004,0.8999999999999999,0.053624521797934685
1.7000000000000004,0.9999999999999999,0.053624521797934685
1.7000000000000004,1.0999999999999999,0.053624521797934685
1.7000000000000004,1.2,0.053624521797934685
1.7000000000000004,1.3,0.053624521797934685
1.7000000000000004,1.4000000000000001,0.053624521797934685
1.7000000000000004,1.5000000000000002,0.053624521797934685
1.7000000000000004,1.6000000000000003,0.053624521797934685
1.7000000000000004,1.7000000000000004,0.053624521797934685
1.7000000000000004,1.8000000000000005,0.053624521797934685
1.7000000000000004,1.9000000000000006,0.053624521797934685
1.8000000000000005,0,0
1.8000000000000005,0.1,0.03286558791536568
1.8000000000000005,0.2,0.03958230275950765
1.8000000000000005,0.30000000000000004,0.03959712956951915
1.8000000000000005,0.4,0.047410392070205795
1.8000000000000005,0.5,0.05364071152984069
1.8000000000000005,0.6,0.053624521797934685
1.8000000000000005,0.7,0.053624521797934685
1.8000000000000005,0.7999999999999999,0.053624521797934685
1.8000000000000005,0.8999999999999999,0.053624521797934685
1.8000000000000005,0.9999999999999999,0.053624521797934685
1.8000000000000005,1.0999999999999999,0.053624521797934685
1.8000000000000005,1.2,0.053624521797934685
1.8000000000000005,1.3,0.053624521797934685
1.8000000000000005,1.4000000000000001,0.053624521797934685
1.8000000000000005,1.5000000000000002,0.053624521797934685
1.8000000000000005,1.6000000000000003,0.053624521797934685
1.8000000000000005,1.7000000000000004,0.053624521797934685
1.8000000000000005,1.8000000000000005,0.053624521797934685
1.8000000000000005,1.9000000000000006,0.053624521797934685
1.9000000000000006,0,0
1.9000000000000006,0.1,0.03286558791536568
1.9000000000000006,0.2,0.03958230275950765
1.9000000000000006,0.30000000000000004,0.03959712956951915
1.9000000000000006,0.4,0.047410392070205795
1.9000000000000006,0.5,0.05364071152984069
1.9000000000000006,0.6,0.053624521797934685
1.9000000000000006,0.7,0.053624521797934685
1.9000000000000006,0.7999999999999999,0.053624521797934685
1.9000000000000006,0.8999999999999999,0.053624521797934685
1.9000000000000006,0.9999999999999999,0.053624521797934685
1.9000000000000006,1.0999999999999999,0.053624521797934685
1.9000000000000006,1.2,0.053624521797934685
1.9000000000000006,1.3,0.053624521797934685
1.9000000000000006,1.4000000000000001,0.053624521797934685
1.9000000000000006,1.5000000000000002,0.053624521797934685
1.9000000000000006,1.6000000000000003,0.053624521797934685
1.9000000000000006,1.7000000000000004,0.053624521797934685
1.9000000000000006,1.8000000000000005,0.053624521797934685
1.9000000000000006,1.9000000000000006,0.053624521797934685
